SAFE; 16;
SAME; 22,19,10;
SAVED; 19,25,16,14;
SAVING; 10;
SCREEN; 26,22,15,7,28,27,25,23,19,18,16,14,11,10,8,4;
SCREENSHOT; 7;
SEARCH; 24,8,26,23,15,13,4;
SEARCHING; 8;
SECTION; 25,14,9,24,10,6;
SECURITY; 16;
SEE; 26,23,20,15,13,11,9,8,4,2;
SEEN; 20;
SELECTED; 24,23,8,4;
SEND; 28,17;
SEO; 8;
SERVICE; 22,8;
SET; 20,9,22;
SETTING; 21,3;
SETTINGS; 8,11,7;
SHOULD; 8,9;
SHOW; 8,22,13,24,26,23,21,19,15,7,6,5,4;
SHOWN; 10,9;
SHOWS; 19,24,26,13;
SIDE; 8,28,19;
SIDEBAR; 1;
SIGN; 27;
SIGNING; 3,18;
SIMILAR; 23,8,4;
SIMPLY; 7,6;
SINCE; 9,22;
SITE; 22,8,23,21,13,20,9,4,25,19,14,10,18,5,2;
SITES; 22,8;
SLIDE; 10;
SLIDESHOW; 10;
SMALL; 9,8,6;
SO; 22,9,19,16;
SOFTWARE; 19;
SOME; 8;
SOMEONE; 24,22,20,19,17,13,3;
SOMETHING; 19,13;
SOMEWHERE; 16;
SOON; 28,17;
SPACE; 8;
SPECIAL; 8;
SPECIFIC; 24,23,13,4,2;
SPREADSHEET; 13;
STAFF; 28,17;
STAND; 9;
STATE; 22,21;
STATUS; 19,25,22,14,23,4;
STAY; 22,12;
STAYING; 3;
STEP; 9;
STILL; 13;
STORAGE; 8;
SUB-PAGE; 8,7;
SUB-PAGES; 6;
SUBMIT; 28,17;
SUBPAGES; 6;
SUCCESS; 24;
SUCH; 20;
SUMMARY; 8;
SUPPORT; 17;
SURE; 22,8,21,19,16,9;
SYSTEM; 25,16,14;
