RANDOM; 13;
RANKINGS; 8;
RE-ARRANGE; 5;
REACH; 22;
READ; 8;
REASON; 22,8;
RECOGNIZED; 13;
RECOMMENDED; 22;
RECORD; 23,4,24;
RECORDS; 23,4;
RED; 19;
REFERENCE; 16;
REFERENCES; 8;
REFERRER; 24;
REGARDING; 22,20;
REGULAR; 8;
RELEVANT; 8;
REMEMBER; 16,8,3;
REPLY; 17;
REQUIRE; 22;
REQUIRED; 22,21,8,25,14,9;
RESET; 26,15;
REST; 22;
RESTORED; 8;
RETURN; 10;
RIGHT; 24,8,26,15;
ROBOTS; 8;
ROLE; 25,14;
ROLES; 25,14;
RULES; 16,3;
RV; 8;
