MAIL; 22;
MAILING; 22;
MAIN; 22,7,23,10,8,4;
MAKE; 8,22,19,9,21,16;
MAKING; 8;
MANAGE; 9,20;
MANAGER; 25,14,11;
MANUAL; 26,25,15,14;
MANY; 26,22,19,15,13;
MARKETING; 10,24;
MARKS; 8;
MAXIMIZE; 11;
MAY; 13,8,25,24,22,19,14,7;
MEANING; 22;
MEANS; 25,8;
MESSAGE; 10,24;
MESSAGES; 10;
META; 8;
MODE; 11;
MODIFCATION; 26;
MODIFICATION; 23,4;
MODIFIED; 24;
MODIFY; 25,26,20,15,23,10,4;
MODIFYING; 24,22,10;
MODULES; 25,14;
MOMENT; 19;
MORE; 8,13,26,25,24,23,15,14,7,4,3;
MOST; 8;
MOTORCYCLES; 8,6;
MOUSE; 5;
MOVE; 22,7;
MUCH; 11;
MY; 8;
