OF; 8,22,19,24,9,20,21,13,10,7,26,28,25,23,14,11,6,5,4,1,18,17,16,15,12;
OFF; 9;
OLD; 11;
ON; 8,22,10,7,9,25,23,19,14,5,4,28,13,3,27,18,12,11,6;
ONCE; 9,8,3;
ONE; 23,20,11,4;
ONLINE; 28;
ONLY; 5,21;
ONTO; 19,9;
OPEN; 12;
OPENS; 8;
OPTION; 8,26,23,22,15,13,4;
OPTIONS; 26,13,8;
OR; 19,24,22,16,11,9,28,26,25,23,17,15,13,10,5,4,3,1;
ORDER; 22,11,10,8;
OTHER; 25,22,19,14;
OUT; 18,9,27,25,22,20,14;
OUTSIDE; 12;
OVER; 24,13,7,5;
OVERVIEW; 2,12,3;
OWN; 8;
