EACH; 8,25,14,11,5;
EASIER; 8,23,22,4;
EASILY; 22,3;
EASY; 19,16,7;
EDIT; 25,14,5;
EDITED; 6;
EDITING; 19;
ELSE; 19;
EMAIL; 22,25,14,3;
EMAILS; 22;
END; 8;
ENGINE; 8;
ENGINES; 8;
ENSURE; 16,13;
ENTER; 22,9,25,16,14,8,7,3;
ENTERED; 22,8;
ENTRIES; 13,26,24,15;
ETC; 24;
EVENT; 24;
EVERY; 24,21,20,19,9;
EVERYONE; 21;
EX; 24,22,8;
EXAMPLE; 8;
EXCEPT; 24,20;
EXISTING; 23,16,4;
EXPANDED; 24;
EXPLAIN; 1;
EXPORT; 13;
EYES; 21;
